name,texture,position_x,position_y,width,height,mouseover_text,character_color,dialog_default_action,dialog_default_text,dialog_default_timeout,dialog_1_condition,dialog_1_text,dialog_1_action,dialog_1_timeout
Bulletin Board,Bulletin-board,711,19,103,68,Bulletin Board,255|204|102,look,The employee breakroom bulletin board.|''This is a right-to-work location.'',100,never,,talk,100
Bathroom Sign,Bathroom-sign-east,950,252,34,43,Bathroom Sign,255|204|102,look,Bathrooms for Elves...|Guess they don't have accommodations for Horses.,100,never,,talk,100
Festive Door,Closed-door-south-festive,582,627,115,77,Locked Festive Door,255|255|255,look,That's a fancy door.|It's locked.,100,have=Picked up bathroom key,The key works on the door!,remove,100
Chicken,chicken2,756,213,50,67,Chicken Cooper,232|214|81,talk,Do you remember what happened?|We fought together at the North Pole.|Anyway...|I spiked the guard's coffee.|Should be safe out here for now.,200,never,,talk,100
Coffee Pot,coffee-pot,883,74,24,24,Coffee Pot,255|255|255,heal,I feel better now.,200,never,,talk,100
