name,texture,position_x,position_y,width,height,mouseover_text,character_color,dialog_default_action,dialog_default_text,dialog_default_timeout,dialog_1_condition,dialog_1_text,dialog_1_action,dialog_1_timeout
Chicken1,chicken3,775,450,66,68,Chicken Claude,232|214|81,talk,We got you out before the Elves broke in.|I'm sorry to say...|The other Horses didn't survive the attack.|But we'll escape.|You can count on us Chickens.,200,never,,talk,100
Green Gift,gift1,714,100,50,55,Green Gift,255|255|255,look,I don't have time to deliver gifts right now.,100,never,,,
Pink Gift,gift2,750,200,50,55,Pink Gift,255|255|255,look,I don't have time to deliver gifts right now.,100,never,,,
Blue Gift,gift3,840,245,50,55,Blue Gift,255|255|255,look,I don't have time to deliver gifts right now.,100,never,,,
