name,texture,position_x,position_y,width,height,mouseover_text,character_color,dialog_default_action,dialog_default_text,dialog_default_timeout,dialog_1_condition,dialog_1_text,dialog_1_action,dialog_1_timeout
Conference Door,Closed-door-south-conference,583,634,115,60,Locked door,255|255|255,look,They locked me in!,100,have=Conference Key,I need to get out of here.,remove,100
Conference Key,key2,750,176,21,10,Key,255|255|255,pickup,One of them dropped a key.,100,never,,,
Elf 1,elf2,380,90,52,69,Combative Elf,255|255|255,fight,,,never,,,
Elf 2,elf3,825,90,52,69,Combative Elf,255|255|255,fight,,,never,,,
Elf 3,elf4,380,560,52,69,Combative Elf,255|255|255,fight,,,never,,,
Elf 4,elf5,825,560,52,69,Combative Elf,255|255|255,fight,,,never,,,
Monitor,monitor,504,6,273,75,Monitor,255|255|255,look,Looks like they were having a meeting on Search Engine Optimization.,200,never,,,
Whiteboard,whiteboard,265,81,98,559,Whiteboard,255|255|255,look,What does ''SSES'' mean?,100,never,,,
